\relax 
\catcode `"\active 
\select@language{portuguese}
\@writefile{toc}{\select@language{portuguese}}
\@writefile{lof}{\select@language{portuguese}}
\@writefile{lot}{\select@language{portuguese}}
\@writefile{toc}{\contentsline {section}{\numberline {I}\textbf  {Introdu\IeC {\c c}\IeC {\~a}o}}{1}}
\@writefile{lof}{\contentsline {figure}{\numberline {1}{\ignorespaces }}{1}}
\@writefile{lof}{\contentsline {figure}{\numberline {2}{\ignorespaces }}{2}}
\@writefile{lof}{\contentsline {figure}{\numberline {3}{\ignorespaces }}{2}}
\@writefile{lof}{\contentsline {figure}{\numberline {4}{\ignorespaces }}{2}}
\@writefile{lof}{\contentsline {figure}{\numberline {5}{\ignorespaces }}{2}}
\@writefile{toc}{\contentsline {section}{\numberline {II}\textbf  {Quest\IeC {\~o}es te\IeC {\'o}ricas e simula\IeC {\c c}\IeC {\~a}o}}{2}}
\@writefile{lof}{\contentsline {figure}{\numberline {6}{\ignorespaces }}{3}}
\@writefile{lof}{\contentsline {figure}{\numberline {7}{\ignorespaces }}{3}}
\@writefile{lof}{\contentsline {figure}{\numberline {8}{\ignorespaces }}{3}}
\@writefile{lof}{\contentsline {figure}{\numberline {9}{\ignorespaces }}{4}}
\@writefile{lof}{\contentsline {figure}{\numberline {10}{\ignorespaces Integrador de Miller}}{4}}
\newlabel{fig:Integrador de Miller}{{10}{4}}
\@writefile{toc}{\contentsline {section}{\numberline {III}\textbf  {Experi\IeC {\^e}ncia}}{4}}
\@writefile{lof}{\contentsline {figure}{\numberline {11}{\ignorespaces Amplificador inversor com ganho de -10}}{5}}
\newlabel{fig:EQ1a}{{11}{5}}
\@writefile{lof}{\contentsline {figure}{\numberline {12}{\ignorespaces Atenua\IeC {\c c}\IeC {\~a}o do ruido na sa\IeC {\'\i }da}}{5}}
\newlabel{fig:EQ1c}{{12}{5}}
