\relax 
\catcode `"\active 
\bibstyle{abnt-num}
\select@language{portuguese}
\@writefile{toc}{\select@language{portuguese}}
\@writefile{lof}{\select@language{portuguese}}
\@writefile{lot}{\select@language{portuguese}}
\@writefile{toc}{\contentsline {section}{\numberline {I}\textbf  {Introdu\IeC {\c c}\IeC {\~a}o}}{1}}
\@writefile{lof}{\contentsline {figure}{\numberline {1}{\ignorespaces Circuito retifcador com filtro capacitivo e carga.}}{1}}
\newlabel{fig:retificador_capacitivo}{{1}{1}}
\@writefile{lof}{\contentsline {figure}{\numberline {2}{\ignorespaces Tens\IeC {\~a}o de ripple.}}{1}}
\newlabel{fig:tensao_ripple}{{2}{1}}
\@writefile{toc}{\contentsline {section}{\numberline {II}\textbf  {Quest\IeC {\~o}es te\IeC {\'o}ricas e simula\IeC {\c c}\IeC {\~a}o}}{1}}
\@writefile{toc}{\contentsline {subsection}{\numberline {\unhbox \voidb@x \hbox {II-A}}\textbf  {Quest\IeC {\~a}o te\IeC {\'o}rica 1:}}{1}}
\newlabel{E1}{{1}{2}}
\@writefile{toc}{\contentsline {subsection}{\numberline {\unhbox \voidb@x \hbox {II-B}}\textbf  {Quest\IeC {\~a}o te\IeC {\'o}rica 2:}}{2}}
\@writefile{lof}{\contentsline {figure}{\numberline {3}{\ignorespaces Teste de carga para fonte de alimenta\IeC {\c c}\IeC {\~a}o com regula\IeC {\c c}\IeC {\~a}o de tens\IeC {\~a}o por diodo Zener.}}{2}}
\newlabel{fig:Circuito2}{{3}{2}}
\@writefile{lof}{\contentsline {figure}{\numberline {4}{\ignorespaces Simula\IeC {\c c}\IeC {\~a}o desconsiderando a carga $R_L$.}}{2}}
\newlabel{fig:Sim1}{{4}{2}}
\@writefile{toc}{\contentsline {section}{\numberline {III}\textbf  {Quest\IeC {\~o}es experimentais e discuss\IeC {\~a}o}}{2}}
\@writefile{toc}{\contentsline {subsection}{\numberline {\unhbox \voidb@x \hbox {III-A}}\textbf  {Experi\IeC {\^e}ncia 1:}}{2}}
\@writefile{lof}{\contentsline {figure}{\numberline {5}{\ignorespaces Tens\IeC {\~o}es de entrada e sa\IeC {\'\i }da para o circuito da Figura \ref  {fig:retificador_capacitivo} com $R_L = \infty $.}}{2}}
\newlabel{fig:Ex1_Rinf}{{5}{2}}
\newlabel{E3}{{3}{2}}
\@writefile{lof}{\contentsline {figure}{\numberline {6}{\ignorespaces Tens\IeC {\~o}es de entrada e sa\IeC {\'\i }da para o circuito da Figura \ref  {fig:retificador_capacitivo} com $R_L = 2.2 k\Omega $.}}{2}}
\newlabel{fig:Ex1_R2k}{{6}{2}}
\@writefile{toc}{\contentsline {subsection}{\numberline {\unhbox \voidb@x \hbox {III-B}}\textbf  {Experi\IeC {\^e}ncia 2:}}{3}}
\@writefile{lof}{\contentsline {figure}{\numberline {7}{\ignorespaces Tens\IeC {\~o}es de entrada e sa\IeC {\'\i }da para o circuito da Figura \ref  {fig:Circuito2} com $R_L = \infty $.}}{3}}
\newlabel{fig:Ex2_Rinf}{{7}{3}}
\@writefile{lof}{\contentsline {figure}{\numberline {8}{\ignorespaces Tens\IeC {\~o}es de entrada e sa\IeC {\'\i }da para o circuito da Figura \ref  {fig:Circuito2} com $R_L = 2.2 k\Omega $.}}{3}}
\newlabel{fig:Ex2_R2k}{{8}{3}}
\@writefile{lot}{\contentsline {table}{\numberline {I}{\ignorespaces Tabela1: Tens\IeC {\~o}es \textit  {DC} e $v_{PP}$ para diferentes cargas no circuito da Figura \ref  {fig:Circuito2}.}}{3}}
\newlabel{T1}{{I}{3}}
\@writefile{lof}{\contentsline {figure}{\numberline {9}{\ignorespaces Tens\IeC {\~o}es de entrada e sa\IeC {\'\i }da para o circuito da Figura \ref  {fig:Circuito2} com $R_L = 1 k\Omega $.}}{3}}
\newlabel{fig:Ex2_R1k}{{9}{3}}
\@writefile{lof}{\contentsline {figure}{\numberline {10}{\ignorespaces Tens\IeC {\~o}es de entrada e sa\IeC {\'\i }da para o circuito da Figura \ref  {fig:Circuito2} com $R_L = 560 \Omega $.}}{3}}
\newlabel{fig:Ex2_R560}{{10}{3}}
\@writefile{lof}{\contentsline {figure}{\numberline {11}{\ignorespaces Tens\IeC {\~o}es de entrada e sa\IeC {\'\i }da para o circuito da Figura \ref  {fig:Circuito2} com $R_L = 330 \Omega $.}}{3}}
\newlabel{fig:Ex2_R330}{{11}{3}}
\@writefile{toc}{\contentsline {subsection}{\numberline {\unhbox \voidb@x \hbox {III-C}}\textbf  {Quest\IeC {\~a}o experimental 1:}}{3}}
\@writefile{toc}{\contentsline {subsection}{\numberline {\unhbox \voidb@x \hbox {III-D}}\textbf  {Quest\IeC {\~a}o experimental 2:}}{4}}
\@writefile{toc}{\contentsline {section}{\numberline {IV}\textbf  {Refer\IeC {\^e}ncias}}{4}}
