\relax 
\catcode `"\active 
\bibstyle{abnt-num}
\select@language{portuguese}
\@writefile{toc}{\select@language{portuguese}}
\@writefile{lof}{\select@language{portuguese}}
\@writefile{lot}{\select@language{portuguese}}
\@writefile{toc}{\contentsline {section}{\numberline {I}\textbf  {Introdu\IeC {\c c}\IeC {\~a}o}}{1}}
\@writefile{lof}{\contentsline {figure}{\numberline {1}{\ignorespaces Estrutura de um MOSFET.}}{1}}
\newlabel{fig:Estrutura_MOSFET}{{1}{1}}
\@writefile{lof}{\contentsline {figure}{\numberline {2}{\ignorespaces MOSFET como chave de uma l\IeC {\^a}mpada.}}{1}}
\newlabel{fig:MOSFET_chave}{{2}{1}}
\@writefile{lof}{\contentsline {figure}{\numberline {3}{\ignorespaces MOSFET como espelho de corrente.}}{2}}
\newlabel{fig:MOSFET_espelho_corrente}{{3}{2}}
\@writefile{lof}{\contentsline {figure}{\numberline {4}{\ignorespaces MOSFET como amplificador de fonte comum.}}{2}}
\newlabel{fig:MOSFET_Amp_Fonte}{{4}{2}}
\@writefile{toc}{\contentsline {section}{\numberline {II}\textbf  {Quest\IeC {\~o}es te\IeC {\'o}ricas}}{2}}
\@writefile{lof}{\contentsline {figure}{\numberline {5}{\ignorespaces Gr\IeC {\'a}fico de ($I_D$ $X$ $V_{DS}$) para $\frac  {\beta _n}{2} = ,28 \times 10^{-3}$.}}{2}}
\newlabel{fig:Bn1}{{5}{2}}
\@writefile{lof}{\contentsline {figure}{\numberline {6}{\ignorespaces Gr\IeC {\'a}fico de ($I_D$ $X$ $V_{GS}$) para $\frac  {\beta _n}{2} = ,28 \times 10^{-3}$.}}{2}}
\newlabel{fig:Bn1_VGS}{{6}{2}}
\@writefile{toc}{\contentsline {section}{\numberline {III}\textbf  {Experi\IeC {\^e}ncia}}{2}}
\@writefile{lof}{\contentsline {figure}{\numberline {7}{\ignorespaces Circuito para experi\IeC {\^e}ncias 1 e 2.}}{3}}
\newlabel{fig:Circuito_exp}{{7}{3}}
\@writefile{lof}{\contentsline {figure}{\numberline {8}{\ignorespaces Sinal de entrada e sa\IeC {\'\i }da do circuito da figura \ref  {fig:Circuito_exp} com a tens\IeC {\~a}o do gate $V_{G}$ variando.}}{3}}
\newlabel{fig:1b_sinal}{{8}{3}}
\@writefile{lof}{\contentsline {figure}{\numberline {9}{\ignorespaces Curva da corrente $I_D$ em fun\IeC {\c c}\IeC {\~a}o de $V_{GS}$ do circuito da figura \ref  {fig:Circuito_exp}.}}{3}}
\newlabel{fig:1b_XY}{{9}{3}}
\@writefile{lof}{\contentsline {figure}{\numberline {10}{\ignorespaces Sinal de entrada e sa\IeC {\'\i }da do circuito da figura \ref  {fig:Circuito_exp} com a tens\IeC {\~a}o do dreno $V_D$ variando.}}{3}}
\newlabel{fig:2b_sinal}{{10}{3}}
\@writefile{lof}{\contentsline {figure}{\numberline {11}{\ignorespaces Curva da corrente $I_D$ em fun\IeC {\c c}\IeC {\~a}o de $V_{DS}$ do circuito da figura \ref  {fig:Circuito_exp}.}}{3}}
\newlabel{fig:2b_XY}{{11}{3}}
\@writefile{toc}{\contentsline {section}{\numberline {IV}\textbf  {Quest\IeC {\~o}es experimentais e discuss\IeC {\~a}o}}{3}}
\newlabel{E1}{{1}{3}}
\bibstyle{abbrv}
\newlabel{E2}{{2}{4}}
\@writefile{toc}{\contentsline {section}{\numberline {V}\textbf  {Refer\IeC {\^e}ncias}}{4}}
