\relax 
\catcode `"\active 
\bibstyle{abnt-num}
\select@language{portuguese}
\@writefile{toc}{\select@language{portuguese}}
\@writefile{lof}{\select@language{portuguese}}
\@writefile{lot}{\select@language{portuguese}}
\@writefile{toc}{\contentsline {section}{\numberline {I}\textbf  {Introdu\IeC {\c c}\IeC {\~a}o}}{1}}
\@writefile{toc}{\contentsline {section}{\numberline {II}\textbf  {Quest\IeC {\~o}es te\IeC {\'o}ricas e simula\IeC {\c c}\IeC {\~a}o}}{1}}
\@writefile{lof}{\contentsline {figure}{\numberline {1}{\ignorespaces Circuito amplifcador n\IeC {\~a}o-inversor com compensa\IeC {\c c}\IeC {\~a}o para efeito da corrente de polariza\IeC {\c c}\IeC {\~a}o.}}{2}}
\newlabel{fig:Circuito_teoria}{{1}{2}}
\newlabel{E1}{{1}{2}}
\newlabel{E2}{{2}{2}}
\@writefile{lof}{\contentsline {figure}{\numberline {2}{\ignorespaces Diagrama de Bode Circuito amplifcador n\IeC {\~a}o-inversor com compensa\IeC {\c c}\IeC {\~a}o para efeito da corrente de polariza\IeC {\c c}\IeC {\~a}o.}}{2}}
\newlabel{fig:Bode}{{2}{2}}
\@writefile{toc}{\contentsline {section}{\numberline {III}\textbf  {Experi\IeC {\^e}ncia}}{2}}
\@writefile{lof}{\contentsline {figure}{\numberline {3}{\ignorespaces Formas de onda das tens\IeC {\~o}es de entrada e sa\IeC {\'\i }da e suas tens\IeC {\~o}es m\IeC {\'a}ximas para sinal com frequ\IeC {\^e}cia de $1 kHz$.}}{2}}
\newlabel{fig:E1a_Amplitude}{{3}{2}}
\@writefile{lof}{\contentsline {figure}{\numberline {4}{\ignorespaces Formas de onda das tens\IeC {\~o}es de entrada e sa\IeC {\'\i }da e a diferen\IeC {\c c}a de fase entre elas.}}{3}}
\newlabel{fig:E1a_Fase}{{4}{3}}
\@writefile{lof}{\contentsline {figure}{\numberline {5}{\ignorespaces Formas de onda das tens\IeC {\~o}es de entrada e sa\IeC {\'\i }da e suas tens\IeC {\~o}es m\IeC {\'a}ximas para sinal com frequ\IeC {\^e}ncia de $0,1 f_{3 dB}$.}}{3}}
\newlabel{fig:E1b_01f_Amplitude}{{5}{3}}
\@writefile{lof}{\contentsline {figure}{\numberline {6}{\ignorespaces Formas de onda das tens\IeC {\~o}es de entrada e sa\IeC {\'\i }da e a fase entre elas para sinal com frequ\IeC {\^e}ncia de $0,1 f_{3 dB}$.}}{3}}
\newlabel{fig:E1b_01f_Fase}{{6}{3}}
\@writefile{lof}{\contentsline {figure}{\numberline {7}{\ignorespaces Formas de onda das tens\IeC {\~o}es de entrada e sa\IeC {\'\i }da e suas tens\IeC {\~o}es m\IeC {\'a}ximas para sinal com frequ\IeC {\^e}ncia de $10 f_{3 dB}$}}{3}}
\newlabel{fig:E1b_10f_Amplitude}{{7}{3}}
\@writefile{toc}{\contentsline {section}{\numberline {IV}\textbf  {Quest\IeC {\~o}es experimentais e discuss\IeC {\~a}o}}{3}}
\newlabel{E3}{{3}{3}}
\bibstyle{abbrv}
\@writefile{lof}{\contentsline {figure}{\numberline {8}{\ignorespaces Formas de onda das tens\IeC {\~o}es de entrada e sa\IeC {\'\i }da e a fase entre elas para sinal com frequ\IeC {\^e}ncia de $10 f_{3 dB}$.}}{4}}
\newlabel{fig:E1b_10f_Fase}{{8}{4}}
\@writefile{toc}{\contentsline {section}{\numberline {V}\textbf  {Refer\IeC {\^e}ncias}}{4}}
