\relax 
\catcode `"\active 
\bibstyle{abnt-num}
\select@language{portuguese}
\@writefile{toc}{\select@language{portuguese}}
\@writefile{lof}{\select@language{portuguese}}
\@writefile{lot}{\select@language{portuguese}}
\@writefile{toc}{\contentsline {section}{\numberline {I}\textbf  {Introdu\IeC {\c c}\IeC {\~a}o}}{1}}
\@writefile{lof}{\contentsline {figure}{\numberline {1}{\ignorespaces Representa\IeC {\c c}\IeC {\~a}o de Transistores PNP e NPN mostrando suas regi\IeC {\~o}es integrantes, incluindo as jun\IeC {\c c}\IeC {\~o}es}}{1}}
\newlabel{fig:TBJ}{{1}{1}}
\@writefile{lof}{\contentsline {figure}{\numberline {2}{\ignorespaces Circuito inversor b\IeC {\'a}sico}}{1}}
\newlabel{fig:TBJ}{{2}{1}}
\@writefile{lof}{\contentsline {figure}{\numberline {3}{\ignorespaces Circuito emissor comum}}{2}}
\newlabel{fig:TBJ}{{3}{2}}
\@writefile{toc}{\contentsline {section}{\numberline {II}\textbf  {Quest\IeC {\~o}es te\IeC {\'o}ricas e simula\IeC {\c c}\IeC {\~a}o}}{2}}
\@writefile{lof}{\contentsline {figure}{\numberline {4}{\ignorespaces  Circuito de caracteriza\IeC {\c c}\IeC {\~a}o de transistores NPN}}{2}}
\newlabel{fig:CircuitoLab}{{4}{2}}
\@writefile{toc}{\contentsline {section}{\numberline {III}\textbf  {Experimento}}{2}}
\@writefile{lof}{\contentsline {figure}{\numberline {5}{\ignorespaces  Circuito de caracteriza\IeC {\c c}\IeC {\~a}o de transistores NPN}}{2}}
\newlabel{fig:CircuitoLab}{{5}{2}}
\@writefile{lot}{\contentsline {table}{\numberline {I}{\ignorespaces Tabela do experimento 1}}{3}}
\newlabel{tab:Ex1}{{I}{3}}
\@writefile{lot}{\contentsline {table}{\numberline {II}{\ignorespaces Tabela Experimento 2}}{3}}
\newlabel{tab:Ex2}{{II}{3}}
\@writefile{toc}{\contentsline {section}{\numberline {IV}\textbf  {Quest\IeC {\~o}es experimentais e discuss\IeC {\~a}o}}{3}}
\@writefile{lof}{\contentsline {figure}{\numberline {6}{\ignorespaces $V_{be}$ X $I_c$ com $V_{cc} = 0$}}{3}}
\newlabel{fig:Q1_Vcc0}{{6}{3}}
\@writefile{lof}{\contentsline {figure}{\numberline {7}{\ignorespaces $V_{be}$ X $I_c$ com $V_{cc} = 5$}}{3}}
\newlabel{fig:CircuitoLab}{{7}{3}}
\@writefile{lof}{\contentsline {figure}{\numberline {8}{\ignorespaces  $V_{be}$ X $I_c$ com $V_{cc} = 10$}}{3}}
\newlabel{fig:CircuitoLab}{{8}{3}}
\bibstyle{abbrv}
\@writefile{lof}{\contentsline {figure}{\numberline {9}{\ignorespaces  $V_{ce}$ X $I_c$ com $V_{cc} = -2, -1, 0$ e $0.5$}}{4}}
\newlabel{fig:CircuitoLab}{{9}{4}}
\@writefile{lof}{\contentsline {figure}{\numberline {10}{\ignorespaces  $V_{ce}$ X $I_c$ com $V_{cc} = 1$}}{4}}
\newlabel{fig:CircuitoLab}{{10}{4}}
\@writefile{lof}{\contentsline {figure}{\numberline {11}{\ignorespaces  $V_{ce}$ X $I_c$ com $V_{cc} = 2$}}{4}}
\newlabel{fig:CircuitoLab}{{11}{4}}
\@writefile{lof}{\contentsline {figure}{\numberline {12}{\ignorespaces  $V_{ce}$ X $I_c$ com $V_{cc} = 3$}}{4}}
\newlabel{fig:CircuitoLab}{{12}{4}}
\@writefile{lof}{\contentsline {figure}{\numberline {13}{\ignorespaces  $V_{ce}$ X $I_c$ com $V_{cc} = 5$}}{4}}
\newlabel{fig:CircuitoLab}{{13}{4}}
\@writefile{toc}{\contentsline {section}{\numberline {V}\textbf  {Refer\IeC {\^e}ncias}}{4}}
