\relax 
\catcode `"\active 
\bibstyle{abnt-num}
\select@language{portuguese}
\@writefile{toc}{\select@language{portuguese}}
\@writefile{lof}{\select@language{portuguese}}
\@writefile{lot}{\select@language{portuguese}}
\@writefile{toc}{\contentsline {section}{\numberline {I}\textbf  {Introdu\IeC {\c c}\IeC {\~a}o}}{1}}
\@writefile{lot}{\contentsline {table}{\numberline {I}{\ignorespaces Modos de opera\IeC {\c c}\IeC {\~a}o do TBJ.}}{1}}
\newlabel{T1}{{I}{1}}
\@writefile{lof}{\contentsline {figure}{\numberline {1}{\ignorespaces Circuito utilizando TBJ tipo \textit  {npn} como amplificador.}}{1}}
\newlabel{TBJamp}{{1}{1}}
\@writefile{lof}{\contentsline {figure}{\numberline {2}{\ignorespaces Circuito utilizando TBJ tipo \textit  {npn} como chave.}}{1}}
\newlabel{TBJchave}{{2}{1}}
\@writefile{toc}{\contentsline {section}{\numberline {II}\textbf  {Quest\IeC {\~o}es te\IeC {\'o}ricas e simula\IeC {\c c}\IeC {\~a}o}}{1}}
\@writefile{lof}{\contentsline {figure}{\numberline {3}{\ignorespaces Amplificador transistorizado.}}{2}}
\newlabel{Circuito1}{{3}{2}}
\@writefile{toc}{\contentsline {subsection}{\numberline {\unhbox \voidb@x \hbox {II-A}}\textbf  {Quest\IeC {\~a}o 1(a):}}{2}}
\@writefile{lof}{\contentsline {figure}{\numberline {4}{\ignorespaces Circuito equivalente AC do amplificador transistorizado.}}{2}}
\newlabel{fig:1a}{{4}{2}}
\@writefile{toc}{\contentsline {subsection}{\numberline {\unhbox \voidb@x \hbox {II-B}}\textbf  {Quest\IeC {\~a}o 1(b):}}{2}}
\@writefile{lof}{\contentsline {figure}{\numberline {5}{\ignorespaces Circuito equivalente PI H\IeC {\'\i }brido AC do amplificador transistorizado.}}{2}}
\newlabel{fig:PI}{{5}{2}}
\newlabel{Eq1}{{1}{2}}
\newlabel{Eq2}{{2}{2}}
\newlabel{Eq3}{{3}{2}}
\newlabel{Eq4}{{4}{2}}
\newlabel{Eq5}{{5}{2}}
\newlabel{Eq6}{{6}{2}}
\@writefile{toc}{\contentsline {subsection}{\numberline {\unhbox \voidb@x \hbox {II-C}}\textbf  {Quest\IeC {\~a}o 1(c):}}{2}}
\@writefile{toc}{\contentsline {subsection}{\numberline {\unhbox \voidb@x \hbox {II-D}}\textbf  {Quest\IeC {\~a}o 1(d):}}{2}}
\@writefile{lof}{\contentsline {figure}{\numberline {6}{\ignorespaces Simula\IeC {\c c}\IeC {\~a}o do circuito da Figura \ref  {Circuito1}.}}{3}}
\newlabel{SimCircFig1}{{6}{3}}
\@writefile{toc}{\contentsline {section}{\numberline {III}\textbf  {Experimento}}{3}}
\@writefile{lot}{\contentsline {table}{\numberline {II}{\ignorespaces Par\IeC {\^a}metros para o circuito da Figura \ref  {Circuito1}.}}{3}}
\newlabel{T2}{{II}{3}}
\@writefile{lof}{\contentsline {figure}{\numberline {7}{\ignorespaces Sinais de entrada e sa\IeC {\'\i }da do circuito da Figura \ref  {Circuito1}.}}{3}}
\newlabel{ExpCirc1}{{7}{3}}
\@writefile{lof}{\contentsline {figure}{\numberline {8}{\ignorespaces Sinais de entrada e sa\IeC {\'\i }da do circuito da Figura \ref  {Circuito1} com modifica\IeC {\c c}\IeC {\~a}o nos par\IeC {\^a}metros $V_S(t)$ e $RS$, para $RL = 47 k\Omega $.}}{3}}
\newlabel{RL47}{{8}{3}}
\@writefile{lof}{\contentsline {figure}{\numberline {9}{\ignorespaces Sinais de entrada e sa\IeC {\'\i }da do circuito da Figura \ref  {Circuito1} com modifica\IeC {\c c}\IeC {\~a}o nos par\IeC {\^a}metros $V_S(t)$ e $RS$, para $RL = \infty $.}}{4}}
\newlabel{RLInf}{{9}{4}}
\@writefile{lot}{\contentsline {table}{\numberline {III}{\ignorespaces Faixa de frequ\IeC {\^e}ncias de funcionamento do TBJ.}}{4}}
\newlabel{T3}{{III}{4}}
\@writefile{lof}{\contentsline {figure}{\numberline {10}{\ignorespaces Amplifcador de sinais de voz com est\IeC {\'a}gio de sa\IeC {\'\i }da \textit  {push-pull}.}}{4}}
\newlabel{Circuito2}{{10}{4}}
\@writefile{lof}{\contentsline {figure}{\numberline {11}{\ignorespaces Circuito montado a partir do circuito da Figura \ref  {Circuito2}.}}{4}}
\newlabel{Circ2}{{11}{4}}
\@writefile{lot}{\contentsline {table}{\numberline {IV}{\ignorespaces Par\IeC {\^a}metros para o circuito da Figura \ref  {Circuito2}.}}{4}}
\newlabel{T4}{{IV}{4}}
\@writefile{toc}{\contentsline {section}{\numberline {IV}\textbf  {Quest\IeC {\~o}es experimentais e discuss\IeC {\~a}o}}{4}}
\bibstyle{abbrv}
\@writefile{toc}{\contentsline {section}{\numberline {V}\textbf  {Refer\IeC {\^e}ncias}}{5}}
